Lab3.sim/sim_1/behav/xsim/simulate.log
Vivado Simulator 2020.2
Time resolution is 1 ps
t=0 rst=0 clk=0 | wr_en=0 wr_addr=0 wr_data=0000 | rd0=0:xxxx rd1=0:xxxx | S1=0 S2=0 imm=0000 ALUOp=0000 | in1=xxxx in2=xxxx out=xxxx ovf=x br=0
t=10000 rst=0 clk=1 | wr_en=0 wr_addr=0 wr_data=0000 | rd0=0:xxxx rd1=0:xxxx | S1=0 S2=0 imm=0000 ALUOp=0000 | in1=xxxx in2=xxxx out=xxxx ovf=x br=0
t=20000 rst=0 clk=0 | wr_en=0 wr_addr=0 wr_data=0000 | rd0=0:xxxx rd1=0:xxxx | S1=0 S2=0 imm=0000 ALUOp=0000 | in1=xxxx in2=xxxx out=xxxx ovf=x br=0
t=30000 rst=1 clk=1 | wr_en=0 wr_addr=0 wr_data=0000 | rd0=0:0000 rd1=0:0000 | S1=0 S2=0 imm=0000 ALUOp=0000 | in1=0000 in2=0000 out=0000 ovf=0 br=0
t=40000 rst=1 clk=0 | wr_en=1 wr_addr=0 wr_data=000a | rd0=0:0000 rd1=0:0000 | S1=0 S2=0 imm=0000 ALUOp=0000 | in1=0000 in2=0000 out=0000 ovf=0 br=0
t=50000 rst=1 clk=1 | wr_en=1 wr_addr=0 wr_data=000a | rd0=0:0000 rd1=0:0000 | S1=0 S2=0 imm=0000 ALUOp=0000 | in1=0000 in2=0000 out=0000 ovf=0 br=0
t=51000 rst=1 clk=1 | wr_en=0 wr_addr=0 wr_data=000a | rd0=0:0000 rd1=0:0000 | S1=0 S2=0 imm=0000 ALUOp=0000 | in1=0000 in2=0000 out=0000 ovf=0 br=0
t=60000 rst=1 clk=0 | wr_en=1 wr_addr=1 wr_data=000b | rd0=0:0000 rd1=0:0000 | S1=0 S2=0 imm=0000 ALUOp=0000 | in1=0000 in2=0000 out=0000 ovf=0 br=0
t=70000 rst=1 clk=1 | wr_en=1 wr_addr=1 wr_data=000b | rd0=0:0000 rd1=0:0000 | S1=0 S2=0 imm=0000 ALUOp=0000 | in1=0000 in2=0000 out=0000 ovf=0 br=0
t=71000 rst=1 clk=1 | wr_en=0 wr_addr=1 wr_data=000b | rd0=0:0000 rd1=0:0000 | S1=0 S2=0 imm=0000 ALUOp=0000 | in1=0000 in2=0000 out=0000 ovf=0 br=0
t=80000 rst=1 clk=0 | wr_en=1 wr_addr=2 wr_data=000c | rd0=0:0000 rd1=0:0000 | S1=0 S2=0 imm=0000 ALUOp=0000 | in1=0000 in2=0000 out=0000 ovf=0 br=0
t=90000 rst=1 clk=1 | wr_en=1 wr_addr=2 wr_data=000c | rd0=0:0000 rd1=0:0000 | S1=0 S2=0 imm=0000 ALUOp=0000 | in1=0000 in2=0000 out=0000 ovf=0 br=0
t=91000 rst=1 clk=1 | wr_en=0 wr_addr=2 wr_data=000c | rd0=0:0000 rd1=0:0000 | S1=0 S2=0 imm=0000 ALUOp=0000 | in1=0000 in2=0000 out=0000 ovf=0 br=0
t=100000 rst=1 clk=0 | wr_en=1 wr_addr=3 wr_data=000d | rd0=0:0000 rd1=0:0000 | S1=0 S2=0 imm=0000 ALUOp=0000 | in1=0000 in2=0000 out=0000 ovf=0 br=0
t=110000 rst=1 clk=1 | wr_en=1 wr_addr=3 wr_data=000d | rd0=0:0000 rd1=0:0000 | S1=0 S2=0 imm=0000 ALUOp=0000 | in1=0000 in2=0000 out=0000 ovf=0 br=0
t=111000 rst=1 clk=1 | wr_en=0 wr_addr=3 wr_data=000d | rd0=2:0000 rd1=3:0000 | S1=0 S2=0 imm=0000 ALUOp=0000 | in1=0000 in2=0000 out=0000 ovf=0 br=0
t=120000 rst=1 clk=0 | wr_en=0 wr_addr=3 wr_data=000d | rd0=2:0000 rd1=3:0000 | S1=0 S2=0 imm=0000 ALUOp=0000 | in1=0000 in2=0000 out=0000 ovf=0 br=0
t=130000 rst=1 clk=1 | wr_en=0 wr_addr=3 wr_data=000d | rd0=2:0000 rd1=3:0000 | S1=0 S2=0 imm=0000 ALUOp=0000 | in1=0000 in2=0000 out=0000 ovf=0 br=0
t=132000 rst=1 clk=1 | wr_en=0 wr_addr=3 wr_data=000d | rd0=1:0000 rd1=3:0000 | S1=0 S2=0 imm=0000 ALUOp=0000 | in1=0000 in2=0000 out=0000 ovf=0 br=0
t=140000 rst=1 clk=0 | wr_en=0 wr_addr=3 wr_data=000d | rd0=1:0000 rd1=3:0000 | S1=0 S2=0 imm=0000 ALUOp=0000 | in1=0000 in2=0000 out=0000 ovf=0 br=0
t=150000 rst=1 clk=1 | wr_en=0 wr_addr=3 wr_data=000d | rd0=1:0000 rd1=3:0000 | S1=0 S2=0 imm=0000 ALUOp=0000 | in1=0000 in2=0000 out=0000 ovf=0 br=0
t=153000 rst=1 clk=1 | wr_en=0 wr_addr=3 wr_data=000d | rd0=1:0000 rd1=3:0000 | S1=1 S2=0 imm=0000 ALUOp=0000 | in1=0000 in2=0000 out=0000 ovf=0 br=0
t=160000 rst=1 clk=0 | wr_en=0 wr_addr=3 wr_data=000d | rd0=1:0000 rd1=3:0000 | S1=1 S2=0 imm=0000 ALUOp=0000 | in1=0000 in2=0000 out=0000 ovf=0 br=0
t=170000 rst=1 clk=1 | wr_en=0 wr_addr=3 wr_data=000d | rd0=1:0000 rd1=3:0000 | S1=1 S2=0 imm=0000 ALUOp=0000 | in1=0000 in2=0000 out=0000 ovf=0 br=0
t=173000 rst=1 clk=1 | wr_en=0 wr_addr=3 wr_data=000d | rd0=1:0000 rd1=3:0000 | S1=1 S2=1 imm=00ff ALUOp=0000 | in1=0000 in2=00ff out=00ff ovf=0 br=0
t=180000 rst=1 clk=0 | wr_en=0 wr_addr=3 wr_data=000d | rd0=1:0000 rd1=3:0000 | S1=1 S2=1 imm=00ff ALUOp=0000 | in1=0000 in2=00ff out=00ff ovf=0 br=0
t=190000 rst=1 clk=1 | wr_en=0 wr_addr=3 wr_data=000d | rd0=1:0000 rd1=3:0000 | S1=1 S2=1 imm=00ff ALUOp=0000 | in1=0000 in2=00ff out=00ff ovf=0 br=0
t=193000 rst=1 clk=1 | wr_en=0 wr_addr=3 wr_data=000d | rd0=1:0000 rd1=3:0000 | S1=1 S2=1 imm=000c ALUOp=0000 | in1=0000 in2=000c out=000c ovf=0 br=0
t=200000 rst=1 clk=0 | wr_en=0 wr_addr=3 wr_data=000d | rd0=1:0000 rd1=3:0000 | S1=1 S2=1 imm=000c ALUOp=0000 | in1=0000 in2=000c out=000c ovf=0 br=0
t=210000 rst=1 clk=1 | wr_en=0 wr_addr=3 wr_data=000d | rd0=1:0000 rd1=3:0000 | S1=1 S2=1 imm=000c ALUOp=0000 | in1=0000 in2=000c out=000c ovf=0 br=0
t=220000 rst=1 clk=0 | wr_en=1 wr_addr=2 wr_data=000c | rd0=1:0000 rd1=3:0000 | S1=1 S2=1 imm=000c ALUOp=0000 | in1=0000 in2=000c out=000c ovf=0 br=0
t=230000 rst=1 clk=1 | wr_en=1 wr_addr=2 wr_data=000c | rd0=1:0000 rd1=3:0000 | S1=1 S2=1 imm=000c ALUOp=0000 | in1=0000 in2=000c out=000c ovf=0 br=0
t=231000 rst=1 clk=1 | wr_en=0 wr_addr=2 wr_data=000c | rd0=1:0000 rd1=3:0000 | S1=1 S2=1 imm=0011 ALUOp=0000 | in1=0000 in2=0011 out=0011 ovf=0 br=0
t=240000 rst=1 clk=0 | wr_en=0 wr_addr=2 wr_data=000c | rd0=1:0000 rd1=3:0000 | S1=1 S2=1 imm=0011 ALUOp=0000 | in1=0000 in2=0011 out=0011 ovf=0 br=0
t=250000 rst=1 clk=1 | wr_en=0 wr_addr=2 wr_data=000c | rd0=1:0000 rd1=3:0000 | S1=1 S2=1 imm=0011 ALUOp=0000 | in1=0000 in2=0011 out=0011 ovf=0 br=0
t=260000 rst=1 clk=0 | wr_en=1 wr_addr=3 wr_data=0011 | rd0=1:0000 rd1=3:0000 | S1=1 S2=1 imm=0011 ALUOp=0000 | in1=0000 in2=0011 out=0011 ovf=0 br=0
t=270000 rst=1 clk=1 | wr_en=1 wr_addr=3 wr_data=0011 | rd0=1:0000 rd1=3:0000 | S1=1 S2=1 imm=0011 ALUOp=0000 | in1=0000 in2=0011 out=0011 ovf=0 br=0
t=271000 rst=1 clk=1 | wr_en=0 wr_addr=3 wr_data=0011 | rd0=2:0000 rd1=3:0000 | S1=0 S2=0 imm=0011 ALUOp=0000 | in1=0000 in2=0000 out=0000 ovf=0 br=0
t=280000 rst=1 clk=0 | wr_en=0 wr_addr=3 wr_data=0011 | rd0=2:0000 rd1=3:0000 | S1=0 S2=0 imm=0011 ALUOp=0000 | in1=0000 in2=0000 out=0000 ovf=0 br=0
t=290000 rst=1 clk=1 | wr_en=0 wr_addr=3 wr_data=0011 | rd0=2:0000 rd1=3:0000 | S1=0 S2=0 imm=0011 ALUOp=0000 | in1=0000 in2=0000 out=0000 ovf=0 br=0
t=292000 rst=1 clk=1 | wr_en=0 wr_addr=3 wr_data=0011 | rd0=2:0000 rd1=3:0000 | S1=0 S2=0 imm=0011 ALUOp=0010 | in1=0000 in2=0000 out=0000 ovf=0 br=0
t=300000 rst=1 clk=0 | wr_en=0 wr_addr=3 wr_data=0011 | rd0=2:0000 rd1=3:0000 | S1=0 S2=0 imm=0011 ALUOp=0010 | in1=0000 in2=0000 out=0000 ovf=0 br=0
t=310000 rst=1 clk=1 | wr_en=0 wr_addr=3 wr_data=0011 | rd0=2:0000 rd1=3:0000 | S1=0 S2=0 imm=0011 ALUOp=0010 | in1=0000 in2=0000 out=0000 ovf=0 br=0
t=312000 rst=1 clk=1 | wr_en=0 wr_addr=3 wr_data=0011 | rd0=2:0000 rd1=3:0000 | S1=0 S2=0 imm=0011 ALUOp=0011 | in1=0000 in2=0000 out=0000 ovf=0 br=0
t=320000 rst=1 clk=0 | wr_en=0 wr_addr=3 wr_data=0011 | rd0=2:0000 rd1=3:0000 | S1=0 S2=0 imm=0011 ALUOp=0011 | in1=0000 in2=0000 out=0000 ovf=0 br=0
t=330000 rst=1 clk=1 | wr_en=0 wr_addr=3 wr_data=0011 | rd0=2:0000 rd1=3:0000 | S1=0 S2=0 imm=0011 ALUOp=0011 | in1=0000 in2=0000 out=0000 ovf=0 br=0
t=332000 rst=1 clk=1 | wr_en=0 wr_addr=3 wr_data=0011 | rd0=2:0000 rd1=3:0000 | S1=0 S2=0 imm=0011 ALUOp=1000 | in1=0000 in2=0000 out=0000 ovf=0 br=0
t=340000 rst=1 clk=0 | wr_en=0 wr_addr=3 wr_data=0011 | rd0=2:0000 rd1=3:0000 | S1=0 S2=0 imm=0011 ALUOp=1000 | in1=0000 in2=0000 out=0000 ovf=0 br=0
t=350000 rst=1 clk=1 | wr_en=0 wr_addr=3 wr_data=0011 | rd0=2:0000 rd1=3:0000 | S1=0 S2=0 imm=0011 ALUOp=1000 | in1=0000 in2=0000 out=0000 ovf=0 br=0
t=352000 rst=1 clk=1 | wr_en=0 wr_addr=3 wr_data=0011 | rd0=2:0000 rd1=3:0000 | S1=0 S2=0 imm=0011 ALUOp=0001 | in1=0000 in2=0000 out=ffff ovf=0 br=0
t=360000 rst=1 clk=0 | wr_en=0 wr_addr=3 wr_data=0011 | rd0=2:0000 rd1=3:0000 | S1=0 S2=0 imm=0011 ALUOp=0001 | in1=0000 in2=0000 out=ffff ovf=0 br=0
t=370000 rst=1 clk=1 | wr_en=0 wr_addr=3 wr_data=0011 | rd0=2:0000 rd1=3:0000 | S1=0 S2=0 imm=0011 ALUOp=0001 | in1=0000 in2=0000 out=ffff ovf=0 br=0
$finish called at time : 372 ns : File "C:/Users/akars/Downloads/Lab_3/Lab_3/lab3/lab3/lab3.srcs/sim_1/new/alu_reg_file_tb.sv" Line 174
